{
  "name": "blockops-xmrig",
  "version": "0.1.0",
  "author": "opselite@blockops.party",
  "summary": "",
  "license": "Apache-2.0",
  "source": "",
  "dependencies": [
    {
      "name": "nwops-debug",
      "version_requirement": ">= 0.2.0 < 1.0.0"
    },
    {
      "name": "puppetlabs-stdlib",
      "version_requirement": ">= 5.5.0 < 7.0.0"
    },
    {
      "name": "puppet-archive",
      "version_requirement": ">= 3.2.1 < 4.0.0"
    },
    {
      "name": "camptocamp-systemd",
      "version_requirement": ">= 2.12.0 < 3.0.0"
    }
  ],
  "operatingsystem_support": [
    {
      "operatingsystem": "CentOS",
      "operatingsystemrelease": [
        "7"
      ]
    },
    {
      "operatingsystem": "OracleLinux",
      "operatingsystemrelease": [
        "7"
      ]
    },
    {
      "operatingsystem": "RedHat",
      "operatingsystemrelease": [
        "8"
      ]
    },
    {
      "operatingsystem": "Scientific",
      "operatingsystemrelease": [
        "7"
      ]
    },
    {
      "operatingsystem": "Debian",
      "operatingsystemrelease": [
        "10"
      ]
    },
    {
      "operatingsystem": "Ubuntu",
      "operatingsystemrelease": [
        "18.04",
        "20.04"
      ]
    }
  ],
  "requirements": [
    {
      "name": "puppet",
      "version_requirement": ">= 4.10.0 < 8.0.0"
    }
  ],
  "pdk-version": "2.0.0",
  "template-url": "https://github.com/puppetlabs/pdk-templates#main",
  "template-ref": "heads/main-0-g47fb990"
}
